===========================================================================
org.apache.commons.lang.daikon.CharUtilsPerfTest:::CLASS
===========================================================================
org.apache.commons.lang.daikon.CharUtilsPerfTest.main(java.lang.String[]):::ENTER
org.apache.commons.lang.daikon.CharUtilsPerfTest.class$0 == null
arg has only one value
arg.getClass().getName() == java.lang.String[].class
arg[] == []
arg[].toString == []
===========================================================================
org.apache.commons.lang.daikon.CharUtilsPerfTest.main(java.lang.String[]):::EXIT
arg[] == orig(arg[])
org.apache.commons.lang.daikon.CharUtilsPerfTest.class$0 has only one value
arg[] == []
arg[].toString == []
