-------------------------------------------------------------------------------
Test set: org.apache.commons.lang3.time.FastDateFormatTest
-------------------------------------------------------------------------------
Tests run: 15, Failures: 0, Errors: 0, Skipped: 0, Time elapsed: 0.04 sec
