-------------------------------------------------------------------------------
Test set: org.apache.commons.lang3.reflect.FieldUtilsTest
-------------------------------------------------------------------------------
Tests run: 42, Failures: 0, Errors: 0, Skipped: 0, Time elapsed: 0.021 sec
