-------------------------------------------------------------------------------
Test set: org.apache.commons.lang3.tuple.MutablePairTest
-------------------------------------------------------------------------------
Tests run: 8, Failures: 0, Errors: 0, Skipped: 0, Time elapsed: 0.024 sec
