-------------------------------------------------------------------------------
Test set: org.apache.commons.lang3.RangeTest
-------------------------------------------------------------------------------
Tests run: 21, Failures: 0, Errors: 0, Skipped: 0, Time elapsed: 0.007 sec
