-------------------------------------------------------------------------------
Test set: org.apache.commons.lang3.ArrayUtilsTest
-------------------------------------------------------------------------------
Tests run: 146, Failures: 0, Errors: 0, Skipped: 0, Time elapsed: 0.019 sec
