<?xml version="1.0" encoding="UTF-8" ?>
<testsuite tests="22" failures="0" name="org.apache.commons.lang3.time.DateUtilsRoundingTest" time="0.024" errors="0" skipped="0">
  <properties>
    <property name="java.runtime.name" value="Java(TM) SE Runtime Environment"/>
    <property name="java.vm.version" value="11.0.7+8-LTS"/>
    <property name="sun.boot.library.path" value="/Library/Java/JavaVirtualMachines/jdk-11.0.7.jdk/Contents/Home/lib"/>
    <property name="gopherProxySet" value="false"/>
    <property name="maven.multiModuleProjectDirectory" value="/Users/cheny39/Documents/Regression_daikon/source/commons-lang-LANG_3_0"/>
    <property name="java.vm.vendor" value="Oracle Corporation"/>
    <property name="java.vendor.url" value="https://openjdk.java.net/"/>
    <property name="guice.disable.misplaced.annotation.check" value="true"/>
    <property name="path.separator" value=":"/>
    <property name="java.vm.name" value="Java HotSpot(TM) 64-Bit Server VM"/>
    <property name="sun.os.patch.level" value="unknown"/>
    <property name="user.country" value="US"/>
    <property name="sun.java.launcher" value="SUN_STANDARD"/>
    <property name="java.vm.specification.name" value="Java Virtual Machine Specification"/>
    <property name="user.dir" value="/Users/cheny39/Documents/Regression_daikon/source/commons-lang-LANG_3_0"/>
    <property name="java.vm.compressedOopsMode" value="Zero based"/>
    <property name="java.runtime.version" value="11.0.7+8-LTS"/>
    <property name="java.awt.graphicsenv" value="sun.awt.CGraphicsEnvironment"/>
    <property name="os.arch" value="x86_64"/>
    <property name="java.io.tmpdir" value="/var/folders/14/vhn7bg5s7sv9dm_6jp6hw2344lf2mx/T/"/>
    <property name="line.separator" value="
"/>
    <property name="java.vm.specification.vendor" value="Oracle Corporation"/>
    <property name="os.name" value="Mac OS X"/>
    <property name="classworlds.conf" value="/usr/local/Cellar/maven/3.6.0/libexec/bin/m2.conf"/>
    <property name="sun.jnu.encoding" value="UTF-8"/>
    <property name="java.library.path" value="/Users/cheny39/Library/Java/Extensions:/Library/Java/Extensions:/Network/Library/Java/Extensions:/System/Library/Java/Extensions:/usr/lib/java:."/>
    <property name="maven.conf" value="/usr/local/Cellar/maven/3.6.0/libexec/conf"/>
    <property name="jdk.debug" value="release"/>
    <property name="java.class.version" value="55.0"/>
    <property name="java.specification.name" value="Java Platform API Specification"/>
    <property name="sun.management.compiler" value="HotSpot 64-Bit Tiered Compilers"/>
    <property name="os.version" value="10.15.3"/>
    <property name="library.jansi.path" value="/usr/local/Cellar/maven/3.6.0/libexec/lib/jansi-native"/>
    <property name="user.home" value="/Users/cheny39"/>
    <property name="user.timezone" value="America/New_York"/>
    <property name="java.awt.printerjob" value="sun.lwawt.macosx.CPrinterJob"/>
    <property name="file.encoding" value="UTF-8"/>
    <property name="java.specification.version" value="11"/>
    <property name="user.name" value="cheny39"/>
    <property name="java.class.path" value="/usr/local/Cellar/maven/3.6.0/libexec/boot/plexus-classworlds-2.5.2.jar"/>
    <property name="java.vm.specification.version" value="11"/>
    <property name="sun.arch.data.model" value="64"/>
    <property name="sun.java.command" value="org.codehaus.plexus.classworlds.launcher.Launcher test"/>
    <property name="java.home" value="/Library/Java/JavaVirtualMachines/jdk-11.0.7.jdk/Contents/Home"/>
    <property name="user.language" value="en"/>
    <property name="java.specification.vendor" value="Oracle Corporation"/>
    <property name="awt.toolkit" value="sun.lwawt.macosx.LWCToolkit"/>
    <property name="java.vm.info" value="mixed mode"/>
    <property name="java.version" value="11.0.7"/>
    <property name="java.vendor" value="Oracle Corporation"/>
    <property name="maven.home" value="/usr/local/Cellar/maven/3.6.0/libexec"/>
    <property name="file.separator" value="/"/>
    <property name="java.version.date" value="2020-04-14"/>
    <property name="java.vendor.url.bug" value="https://bugreport.java.com/bugreport/"/>
    <property name="sun.io.unicode.encoding" value="UnicodeBig"/>
    <property name="sun.cpu.endian" value="little"/>
    <property name="java.vendor.version" value="18.9"/>
    <property name="sun.cpu.isalist" value=""/>
  </properties>
  <testcase classname="org.apache.commons.lang3.time.DateUtilsRoundingTest" name="testRoundYear" time="0.002"/>
  <testcase classname="org.apache.commons.lang3.time.DateUtilsRoundingTest" name="testRoundMonth" time="0.003"/>
  <testcase classname="org.apache.commons.lang3.time.DateUtilsRoundingTest" name="testRoundSemiMonth" time="0.004"/>
  <testcase classname="org.apache.commons.lang3.time.DateUtilsRoundingTest" name="testRoundDate" time="0.001"/>
  <testcase classname="org.apache.commons.lang3.time.DateUtilsRoundingTest" name="testRoundDayOfMonth" time="0.001"/>
  <testcase classname="org.apache.commons.lang3.time.DateUtilsRoundingTest" name="testRoundAmPm" time="0.001"/>
  <testcase classname="org.apache.commons.lang3.time.DateUtilsRoundingTest" name="testRoundHourOfDay" time="0.001"/>
  <testcase classname="org.apache.commons.lang3.time.DateUtilsRoundingTest" name="testRoundHour" time="0.001"/>
  <testcase classname="org.apache.commons.lang3.time.DateUtilsRoundingTest" name="testRoundMinute" time="0.001"/>
  <testcase classname="org.apache.commons.lang3.time.DateUtilsRoundingTest" name="testRoundSecond" time="0.001"/>
  <testcase classname="org.apache.commons.lang3.time.DateUtilsRoundingTest" name="testRoundMilliSecond" time="0.001"/>
  <testcase classname="org.apache.commons.lang3.time.DateUtilsRoundingTest" name="testTruncateYear" time="0.001"/>
  <testcase classname="org.apache.commons.lang3.time.DateUtilsRoundingTest" name="testTruncateMonth" time="0"/>
  <testcase classname="org.apache.commons.lang3.time.DateUtilsRoundingTest" name="testTruncateSemiMonth" time="0.003"/>
  <testcase classname="org.apache.commons.lang3.time.DateUtilsRoundingTest" name="testTruncateDate" time="0"/>
  <testcase classname="org.apache.commons.lang3.time.DateUtilsRoundingTest" name="testTruncateDayOfMonth" time="0.001"/>
  <testcase classname="org.apache.commons.lang3.time.DateUtilsRoundingTest" name="testTruncateAmPm" time="0"/>
  <testcase classname="org.apache.commons.lang3.time.DateUtilsRoundingTest" name="testTruncateHour" time="0"/>
  <testcase classname="org.apache.commons.lang3.time.DateUtilsRoundingTest" name="testTruncateHourOfDay" time="0.001"/>
  <testcase classname="org.apache.commons.lang3.time.DateUtilsRoundingTest" name="testTruncateMinute" time="0"/>
  <testcase classname="org.apache.commons.lang3.time.DateUtilsRoundingTest" name="testTruncateSecond" time="0.001"/>
  <testcase classname="org.apache.commons.lang3.time.DateUtilsRoundingTest" name="testTruncateMilliSecond" time="0"/>
</testsuite>